module gitlab.com/adred/ds-gateway-server

go 1.17

require (
	github.com/auth0/go-jwt-middleware/v2 v2.0.0
	github.com/go-chi/chi/v5 v5.0.7
	github.com/go-chi/cors v1.2.0
	github.com/gobwas/ws v1.1.0
	github.com/jensneuse/abstractlogger v0.0.4
	github.com/jensneuse/graphql-go-tools v1.43.2
	github.com/joho/godotenv v1.3.0
	go.uber.org/zap v1.20.0
)

require (
	github.com/Masterminds/goutils v1.1.0 // indirect
	github.com/Masterminds/semver v1.5.0 // indirect
	github.com/Masterminds/sprig v2.22.0+incompatible // indirect
	github.com/buger/jsonparser v1.1.1 // indirect
	github.com/cespare/xxhash/v2 v2.1.2 // indirect
	github.com/eclipse/paho.mqtt.golang v1.2.0 // indirect
	github.com/gobuffalo/envy v1.7.0 // indirect
	github.com/gobuffalo/packd v0.3.0 // indirect
	github.com/gobuffalo/packr v1.30.1 // indirect
	github.com/gobwas/httphead v0.1.0 // indirect
	github.com/gobwas/pool v0.2.1 // indirect
	github.com/golang/protobuf v1.5.0 // indirect
	github.com/google/uuid v1.1.1 // indirect
	github.com/hashicorp/golang-lru v0.5.4 // indirect
	github.com/huandu/xstrings v1.2.1 // indirect
	github.com/imdario/mergo v0.3.8 // indirect
	github.com/jensneuse/byte-template v0.0.0-20200214152254-4f3cf06e5c68 // indirect
	github.com/jensneuse/graphql-go-tools/examples/federation v0.0.0-20220124090656-47621af0e283 // indirect
	github.com/jensneuse/pipeline v0.0.0-20200117120358-9fb4de085cd6 // indirect
	github.com/klauspost/compress v1.13.1 // indirect
	github.com/konsorten/go-windows-terminal-sequences v1.0.2 // indirect
	github.com/mitchellh/copystructure v1.0.0 // indirect
	github.com/mitchellh/reflectwalk v1.0.0 // indirect
	github.com/nats-io/nats-server/v2 v2.3.2 // indirect
	github.com/nats-io/nats.go v1.11.1-0.20210623165838-4b75fc59ae30 // indirect
	github.com/nats-io/nkeys v0.3.0 // indirect
	github.com/nats-io/nuid v1.0.1 // indirect
	github.com/pkg/errors v0.9.1 // indirect
	github.com/qri-io/jsonpointer v0.1.1 // indirect
	github.com/qri-io/jsonschema v0.2.1 // indirect
	github.com/rogpeppe/go-internal v1.3.0 // indirect
	github.com/sirupsen/logrus v1.4.2 // indirect
	github.com/tidwall/gjson v1.11.0 // indirect
	github.com/tidwall/match v1.1.1 // indirect
	github.com/tidwall/pretty v1.2.0 // indirect
	github.com/tidwall/sjson v1.0.4 // indirect
	go.uber.org/atomic v1.9.0 // indirect
	go.uber.org/multierr v1.6.0 // indirect
	golang.org/x/crypto v0.0.0-20220112180741-5e0467b6c7ce // indirect
	golang.org/x/net v0.0.0-20211112202133-69e39bad7dc2 // indirect
	golang.org/x/sys v0.0.0-20210615035016-665e8c7367d1 // indirect
	golang.org/x/xerrors v0.0.0-20200804184101-5ec99f83aff1 // indirect
	google.golang.org/protobuf v1.27.1 // indirect
	gopkg.in/square/go-jose.v2 v2.6.0 // indirect
	nhooyr.io/websocket v1.8.7 // indirect
)
